C:\Users\fewsp\New Folder (2)\File_Lab\src\main\java\com\thanabodin\file_lab\ReadPlayer.java
C:\Users\fewsp\New Folder (2)\File_Lab\src\main\java\com\thanabodin\file_lab\WriteFriendList.java
C:\Users\fewsp\New Folder (2)\File_Lab\src\main\java\com\thanabodin\file_lab\Friend.java
C:\Users\fewsp\New Folder (2)\File_Lab\src\main\java\com\thanabodin\file_lab\ReadFriendList.java
C:\Users\fewsp\New Folder (2)\File_Lab\src\main\java\com\thanabodin\file_lab\WriteFriend.java
C:\Users\fewsp\New Folder (2)\File_Lab\src\main\java\com\thanabodin\file_lab\ReadFriend.java
C:\Users\fewsp\New Folder (2)\File_Lab\src\main\java\com\thanabodin\file_lab\WritePlayer.java
C:\Users\fewsp\New Folder (2)\File_Lab\src\main\java\com\thanabodin\file_lab\File_Lab.java
C:\Users\fewsp\New Folder (2)\File_Lab\src\main\java\com\thanabodin\file_lab\Player.java
